<?xml version="1.0" encoding="utf-8"?>
<!-- Generator: Adobe Illustrator 15.1.0, SVG Export Plug-In . SVG Version: 6.00 Build 0)  -->
<!DOCTYPE svg PUBLIC "-//W3C//DTD SVG 1.1//EN" "http://www.w3.org/Graphics/SVG/1.1/DTD/svg11.dtd">
<svg version="1.1" id="Layer_1" xmlns="http://www.w3.org/2000/svg" xmlns:xlink="http://www.w3.org/1999/xlink" x="0px" y="0px"
	 width="841.89px" height="595.28px" viewBox="0 0 841.89 595.28" enable-background="new 0 0 841.89 595.28" xml:space="preserve">
<line fill="none" stroke="#808285" stroke-width="2" stroke-miterlimit="10" stroke-dasharray="7" x1="397.315" y1="321.943" x2="397.315" y2="505.089"/>
<line fill="none" stroke="#808285" stroke-width="2" stroke-miterlimit="10" stroke-dasharray="7" x1="308.318" y1="103.552" x2="308.318" y2="506.089"/>
<line fill="none" stroke="#808285" stroke-width="2" stroke-miterlimit="10" stroke-dasharray="7" x1="219.878" y1="322.052" x2="219.878" y2="506.089"/>
<polygon fill="#FFFFFF" points="417.352,464.071 200.652,464.071 199.897,437.612 416.597,437.612 "/>
<rect x="197.43" y="391.09" fill="#FFFFFF" width="51.155" height="27.689"/>
<rect x="375.989" y="391.899" fill="#FFFFFF" width="51.155" height="27.689"/>
<g>
	<line fill="#FFFFFF" x1="104.003" y1="505.828" x2="733.907" y2="505.828"/>
	<g>
		
			<line fill="none" stroke="#2B3990" stroke-width="2.8" stroke-miterlimit="10" x1="104.003" y1="505.828" x2="714.138" y2="505.828"/>
		<g>
			<polygon fill="#2B3990" points="733.907,505.828 706.05,517.211 712.66,505.828 706.05,494.447 			"/>
		</g>
	</g>
</g>
<g>
	<line fill="#FFFFFF" x1="104.003" y1="320.523" x2="733.907" y2="320.523"/>
	<g>
		
			<line fill="none" stroke="#2B3990" stroke-width="2.8" stroke-miterlimit="10" x1="104.003" y1="320.523" x2="714.138" y2="320.523"/>
		<g>
			<polygon fill="#2B3990" points="733.907,320.523 706.05,331.906 712.66,320.523 706.05,309.143 			"/>
		</g>
	</g>
</g>
<path fill="none" stroke="#1C75BC" stroke-width="2.8" stroke-miterlimit="10" d="M308.129,321.137
	c-10.63,31.717-39.577,59.102-88.397,59.102c-48.821,0-78.236-27.385-88.398-59.102"/>
<path fill="none" stroke="#1C75BC" stroke-width="2.8" stroke-miterlimit="10" d="M219.926,506.089
	c-5.327,17.341-19.833,32.313-44.296,32.313c-24.464,0-39.204-14.972-44.296-32.313"/>
<path fill="none" stroke="#1C75BC" stroke-width="2.8" stroke-miterlimit="10" d="M486.184,321.137
	c-10.63,31.717-39.577,59.102-88.397,59.102c-48.821,0-78.237-27.385-88.398-59.102"/>
<path fill="none" stroke="#1C75BC" stroke-width="2.8" stroke-miterlimit="10" d="M308.335,506.089
	c-5.327,17.341-19.833,32.313-44.296,32.313c-24.464,0-39.204-14.972-44.296-32.313"/>
<path fill="none" stroke="#1C75BC" stroke-width="2.8" stroke-miterlimit="10" d="M397.774,506.089
	c-5.327,17.341-19.832,32.313-44.296,32.313c-24.464,0-39.204-14.972-44.296-32.313"/>
<path fill="none" stroke="#1C75BC" stroke-width="2.8" stroke-miterlimit="10" d="M485.978,506.089
	c-5.327,17.341-19.833,32.313-44.297,32.313s-39.204-14.972-44.295-32.313"/>
<g>
	<g>
		<path fill="none" stroke="#1C75BC" stroke-width="2.8" stroke-miterlimit="10" d="M575.829,506.089
			c-0.293,0.954-0.614,1.901-0.963,2.84"/>
		<path fill="none" stroke="#1C75BC" stroke-width="2.8" stroke-miterlimit="10" stroke-dasharray="5.9011,5.9011" d="
			M572.49,514.323c-6.98,13.589-20.48,24.078-40.957,24.078c-21.783,0-35.856-11.87-42.273-26.713"/>
		<path fill="none" stroke="#1C75BC" stroke-width="2.8" stroke-miterlimit="10" d="M488.169,508.938
			c-0.34-0.941-0.65-1.892-0.932-2.85"/>
	</g>
</g>
<path fill="none" stroke="#1C75BC" stroke-width="2.8" stroke-miterlimit="10" d="M265.058,506.047
	c-5.327-17.341-19.833-32.313-44.296-32.313c-24.464,0-39.204,14.972-44.296,32.313"/>
<path fill="none" stroke="#1C75BC" stroke-width="2.8" stroke-miterlimit="10" d="M353.467,506.047
	c-5.327-17.341-19.833-32.313-44.296-32.313c-24.464,0-39.204,14.972-44.296,32.313"/>
<path fill="none" stroke="#1C75BC" stroke-width="2.8" stroke-miterlimit="10" d="M442.906,506.047
	c-5.327-17.341-19.832-32.313-44.296-32.313c-24.464,0-39.204,14.972-44.296,32.313"/>
<g>
	<g>
		<path fill="none" stroke="#1C75BC" stroke-width="2.8" stroke-miterlimit="10" d="M575.223,380.238c-1.008,0-2.008-0.012-3-0.035"
			/>
		<path fill="none" stroke="#1C75BC" stroke-width="2.8" stroke-miterlimit="10" stroke-dasharray="5.6924,5.6924" d="
			M566.536,379.94c-40.931-2.857-66.809-25.88-77.737-53.306"/>
		<path fill="none" stroke="#1C75BC" stroke-width="2.8" stroke-miterlimit="10" d="M487.791,323.977
			c-0.34-0.942-0.661-1.889-0.966-2.84"/>
	</g>
</g>
<path fill="none" stroke="#1C75BC" stroke-width="2.8" stroke-miterlimit="10" d="M397.248,318.887
	c-10.63-31.716-39.578-59.102-88.398-59.102c-48.821,0-78.236,27.386-88.397,59.102"/>
<path fill="none" stroke="#1C75BC" stroke-width="2.8" stroke-miterlimit="10" d="M486.904,259.785
	c-48.82,0-78.236,27.386-88.397,59.102"/>
<g>
	<g>
		<path fill="none" stroke="#1C75BC" stroke-width="2.8" stroke-miterlimit="10" d="M577.065,318.887
			c-0.317-0.947-0.65-1.889-1.001-2.828"/>
		<path fill="none" stroke="#1C75BC" stroke-width="2.8" stroke-miterlimit="10" stroke-dasharray="5.6872,5.6872" d="
			M573.908,310.798c-12.049-26.894-38.168-48.97-79.392-50.879"/>
		<path fill="none" stroke="#1C75BC" stroke-width="2.8" stroke-miterlimit="10" d="M491.668,259.819
			c-0.991-0.023-1.991-0.035-3-0.035"/>
	</g>
</g>
<g>
	<line fill="#FFFFFF" x1="104.003" y1="105.953" x2="733.907" y2="105.953"/>
	<g>
		
			<line fill="none" stroke="#2B3990" stroke-width="2.8" stroke-miterlimit="10" x1="104.003" y1="105.953" x2="714.138" y2="105.953"/>
		<g>
			<polygon fill="#2B3990" points="733.907,105.953 706.05,117.336 712.66,105.953 706.05,94.572 			"/>
		</g>
	</g>
</g>
<path fill="none" stroke="#1C75BC" stroke-width="2.8" stroke-miterlimit="10" d="M485.565,105.953
	c-21.261,31.717-79.16,59.103-176.807,59.103c-97.648,0-156.483-27.386-176.807-59.103"/>
<path fill="none" stroke="#1C75BC" stroke-width="2.8" stroke-miterlimit="10" d="M487.432,46.85
	c-97.648,0-156.483,27.386-176.807,59.103"/>
<path fill="none" stroke="#1C75BC" stroke-width="2.8" stroke-miterlimit="10" stroke-dasharray="6" d="M665.475,105.953
	C644.214,74.235,586.315,46.85,488.668,46.85"/>
<line fill="none" stroke="#808285" stroke-width="2" stroke-miterlimit="10" stroke-dasharray="7" x1="130.81" y1="103.231" x2="130.81" y2="505.642"/>
<line fill="none" stroke="#808285" stroke-width="2" stroke-miterlimit="10" x1="176.602" y1="460.09" x2="176.602" y2="505.274"/>
<g>
	<g>
		<line fill="none" stroke="#ED1C24" stroke-miterlimit="10" x1="140.044" y1="76.688" x2="299.903" y2="76.688"/>
		<g>
			<path fill="#ED1C24" d="M141.839,76.688l2.191-3.603l-0.123-0.082l-5.875,2.333c-2.047,0.45-4.094,0.9-6.141,1.351
				c2.047,0.45,4.094,0.9,6.141,1.351l5.875,2.333l0.123-0.062L141.839,76.688z"/>
		</g>
		<g>
			<path fill="#ED1C24" d="M298.108,76.688l-2.191-3.603l0.123-0.082l5.875,2.333c2.047,0.45,4.094,0.9,6.141,1.351
				c-2.047,0.45-4.094,0.9-6.141,1.351l-5.875,2.333l-0.123-0.062L298.108,76.688z"/>
		</g>
	</g>
</g>
<g>
	<g>
		<line fill="none" stroke="#ED1C24" stroke-miterlimit="10" x1="138.501" y1="285.51" x2="212.28" y2="285.51"/>
		<g>
			<path fill="#ED1C24" d="M140.296,285.51l2.191-3.603l-0.123-0.082l-5.875,2.333c-2.047,0.45-4.094,0.9-6.141,1.351
				c2.047,0.45,4.094,0.9,6.141,1.351l5.875,2.333l0.123-0.062L140.296,285.51z"/>
		</g>
		<g>
			<path fill="#ED1C24" d="M210.485,285.51l-2.191-3.603l0.123-0.082l5.875,2.333c2.047,0.45,4.094,0.9,6.141,1.351
				c-2.047,0.45-4.094,0.9-6.141,1.351l-5.875,2.333l-0.123-0.062L210.485,285.51z"/>
		</g>
	</g>
</g>
<line fill="none" stroke="#808285" stroke-width="2" stroke-miterlimit="10" stroke-dasharray="7" x1="486.343" y1="107" x2="486.343" y2="506.089"/>
<line fill="none" stroke="#808285" stroke-width="2" stroke-miterlimit="10" x1="130.81" y1="60.576" x2="130.81" y2="105.761"/>
<line fill="none" stroke="#808285" stroke-width="2" stroke-miterlimit="10" x1="308.318" y1="60.576" x2="308.318" y2="105.76"/>
<line fill="none" stroke="#808285" stroke-width="2" stroke-miterlimit="10" x1="219.878" y1="276.867" x2="219.878" y2="322.052"/>
<g>
	<g>
		<line fill="none" stroke="#ED1C24" stroke-miterlimit="10" x1="140.78" y1="479.505" x2="167.78" y2="479.505"/>
		<g>
			<path fill="#ED1C24" d="M142.575,479.505l2.191-3.603l-0.123-0.082l-5.875,2.334c-2.047,0.449-4.094,0.9-6.141,1.351
				c2.047,0.45,4.094,0.9,6.141,1.351l5.875,2.334l0.123-0.062L142.575,479.505z"/>
		</g>
		<g>
			<path fill="#ED1C24" d="M165.985,479.505l-2.191-3.603l0.123-0.082l5.875,2.334c2.047,0.449,4.094,0.9,6.141,1.351
				c-2.047,0.45-4.094,0.9-6.141,1.351l-5.875,2.334l-0.123-0.062L165.985,479.505z"/>
		</g>
	</g>
</g>
<text transform="matrix(1 0 0 1 691.3223 128.4434)" fill="#2E3192" font-family="'MyriadPro-Regular'" font-size="18">t</text>
<text transform="matrix(1 0 0 1 691.3223 343.8672)" fill="#2E3192" font-family="'MyriadPro-Regular'" font-size="18">t</text>
<text transform="matrix(1 0 0 1 691.3223 527.8672)" fill="#2E3192" font-family="'MyriadPro-Regular'" font-size="18">t</text>
<text transform="matrix(1 0 0 1 213.3086 66.2256)" fill="#ED1C24" font-family="'MyriadPro-Regular'" font-size="18">b</text>
<text transform="matrix(1 0 0 1 224.2505 67.7046)" fill="#ED1C24" font-family="'MyriadPro-Bold'" font-size="10">3</text>
<text transform="matrix(1 0 0 1 146.1421 469.5625)" fill="#ED1C24" font-family="'MyriadPro-Regular'" font-size="18">b</text>
<text transform="matrix(1 0 0 1 157.084 471.041)" fill="#ED1C24" font-family="'MyriadPro-Bold'" font-size="10">1</text>
<text transform="matrix(1 0 0 1 167.5317 278.1851)" fill="#ED1C24" font-family="'MyriadPro-Regular'" font-size="18">b</text>
<text transform="matrix(1 0 0 1 178.4736 279.6641)" fill="#ED1C24" font-family="'MyriadPro-Bold'" font-size="10">2</text>
<g>
	<text transform="matrix(1 0 0 1 167.3799 565.1895)" fill="#1C75BC" font-family="'MyriadPro-Regular'" font-size="23.471">W</text>
	<text transform="matrix(1 0 0 1 185.5015 568.1084)" fill="#1C75BC" font-family="'MyriadPro-Bold'" font-size="13.0394">11</text>
</g>
<g>
	<text transform="matrix(1 0 0 1 253.8843 565.1895)" fill="#1C75BC" font-family="'MyriadPro-Regular'" font-size="23.471">W</text>
	<text transform="matrix(1 0 0 1 272.0059 568.1084)" fill="#1C75BC" font-family="'MyriadPro-Bold'" font-size="13.0394">13</text>
</g>
<g>
	<text transform="matrix(1 0 0 1 344.2524 565.1895)" fill="#1C75BC" font-family="'MyriadPro-Regular'" font-size="23.471">W</text>
	<text transform="matrix(1 0 0 1 362.374 568.1084)" fill="#1C75BC" font-family="'MyriadPro-Bold'" font-size="13.0394">15</text>
</g>
<text transform="matrix(1 0 0 1 432.7773 565.1895)" fill="#1C75BC" font-family="'MyriadPro-Regular'" font-size="23.471">W</text>
<text transform="matrix(1 0 0 1 450.8984 568.1084)" fill="#1C75BC" font-family="'MyriadPro-Bold'" font-size="13.0394">17</text>
<text transform="matrix(1 0 0 1 209.9683 459.8496)" fill="#1C75BC" font-family="'MyriadPro-Regular'" font-size="23.471">W</text>
<text transform="matrix(1 0 0 1 228.0898 462.7686)" fill="#1C75BC" font-family="'MyriadPro-Bold'" font-size="13.0394">12</text>
<text transform="matrix(1 0 0 1 298.4727 459.8496)" fill="#1C75BC" font-family="'MyriadPro-Regular'" font-size="23.471">W</text>
<text transform="matrix(1 0 0 1 316.5942 462.7686)" fill="#1C75BC" font-family="'MyriadPro-Bold'" font-size="13.0394">14</text>
<text transform="matrix(1 0 0 1 387.8408 459.8496)" fill="#1C75BC" font-family="'MyriadPro-Regular'" font-size="23.471">W</text>
<text transform="matrix(1 0 0 1 405.9624 462.7686)" fill="#1C75BC" font-family="'MyriadPro-Bold'" font-size="13.0394">16</text>
<text transform="matrix(1 0 0 1 209.7666 412.5977)" fill="#1C75BC" font-family="'MyriadPro-Regular'" font-size="23.471">W</text>
<text transform="matrix(1 0 0 1 227.8882 415.5166)" fill="#1C75BC" font-family="'MyriadPro-Bold'" font-size="13.0394">21</text>
<text transform="matrix(1 0 0 1 388.6392 412.5977)" fill="#1C75BC" font-family="'MyriadPro-Regular'" font-size="23.471">W</text>
<text transform="matrix(1 0 0 1 406.7607 415.5166)" fill="#1C75BC" font-family="'MyriadPro-Bold'" font-size="13.0394">23</text>
<rect x="285.869" y="223.248" fill="#FFFFFF" width="51.155" height="27.689"/>
<rect x="464.427" y="224.058" fill="#FFFFFF" width="51.155" height="29.719"/>
<text transform="matrix(1 0 0 1 298.2051 244.7559)" fill="#1C75BC" font-family="'MyriadPro-Regular'" font-size="23.471">W</text>
<text transform="matrix(1 0 0 1 316.3267 247.6748)" fill="#1C75BC" font-family="'MyriadPro-Bold'" font-size="13.0394">22</text>
<text transform="matrix(1 0 0 1 477.0781 244.7559)" fill="#1C75BC" font-family="'MyriadPro-Regular'" font-size="23.471">W</text>
<text transform="matrix(1 0 0 1 495.1992 247.6748)" fill="#1C75BC" font-family="'MyriadPro-Bold'" font-size="13.0394">24</text>
<rect x="286.727" y="171.522" fill="#FFFFFF" width="51.155" height="27.689"/>
<text transform="matrix(1 0 0 1 299.0635 194.0303)" fill="#1C75BC" font-family="'MyriadPro-Regular'" font-size="23.471">W</text>
<text transform="matrix(1 0 0 1 317.1851 196.9492)" fill="#1C75BC" font-family="'MyriadPro-Bold'" font-size="13.0394">31</text>
<rect x="465.429" y="17.019" fill="#FFFFFF" width="51.155" height="27.689"/>
<text transform="matrix(1 0 0 1 477.7656 36.5269)" fill="#1C75BC" font-family="'MyriadPro-Regular'" font-size="23.471">W</text>
<text transform="matrix(1 0 0 1 495.8867 39.4458)" fill="#1C75BC" font-family="'MyriadPro-Bold'" font-size="13.0394">32</text>
<path fill="none" stroke="#1C75BC" stroke-width="2.8" stroke-miterlimit="10" d="M486.813,473.734
	c-24.464,0-39.203,14.972-44.296,32.313"/>
<g>
	<g>
		<path fill="none" stroke="#1C75BC" stroke-width="2.8" stroke-miterlimit="10" d="M531.129,506.047
			c-0.293-0.954-0.614-1.901-0.963-2.84"/>
		<path fill="none" stroke="#1C75BC" stroke-width="2.8" stroke-miterlimit="10" stroke-dasharray="5.8928,5.8928" d="
			M527.794,497.819c-6.28-12.229-17.841-21.951-35.015-23.776"/>
		<path fill="none" stroke="#1C75BC" stroke-width="2.8" stroke-miterlimit="10" d="M489.832,473.812
			c-0.982-0.052-1.982-0.077-2.999-0.077"/>
	</g>
</g>
</svg>
